{"properties": [
  {
    "name": "url",
    "type": "java.lang.String",
    "description": "A description for 'url'"
  },
  {
    "name": "username",
    "type": "java.lang.String",
    "description": "A description for 'username'"
  },
  {
    "name": "password",
    "type": "java.lang.String",
    "description": "A description for 'password'"
  },
  {
    "name": "driver-class-name",
    "type": "java.lang.String",
    "description": "A description for 'driver-class-name'"
  }
]}